Manipulación de datos con `dplyr`
…
sum(): Suma todo los valores

    summarize()

summarize(datos, mean(oxygen))

summarize(datos, r=cor(oxygen, age))

    group_by()

    Permite agrupar los datos por los niveles de una variable categórica y aplicar, posteriomente, otras funciones

group_by(datos, status)

## # A tibble: 94 x 10
## # Groups:   status [2]
##       id status duration oxygen heartbeat   age height weight sex   smoker
##    <int> <fct>     <int>  <dbl>     <int> <int>  <int>  <int> <fct> <fct> 
##  1     1 Active      660   38.1       184    23    177     83 Masc~ Si    
##  2     2 Active      628   38.4       183    21    163     52 Masc~ Si    
##  3     3 Active      637   41.7       200    21    174     61 Femi~ No    
##  4     4 Active      575   33.5       170    42    160     50 Masc~ Si    
##  5     5 Active      590   28.6       188    34    170     68 Femi~ No    
##  6     6 Active      600   23.9       190    43    171     68 Masc~ No    
##  7     7 Active      562   29.6       190    30    172     63 Masc~ No    
##  8     8 Active      495   27.3       180    49    157     53 Masc~ Si    
##  9     9 Active      540   33.2       184    30    178     63 Masc~ Si    
## 10    10 Active      470   26.6       162    57    161     63 Femi~ Si    
## # ... with 84 more rows
…
